<?xml version="1.0" encoding="UTF-8"?>
<svg width="53px" height="53px" viewBox="0 0 53 53" version="1.1" xmlns="http://www.w3.org/2000/svg" xmlns:xlink="http://www.w3.org/1999/xlink">
    <!-- Generator: Sketch 49 (51002) - http://www.bohemiancoding.com/sketch -->
    <title>Group</title>
    <desc>Created with Sketch.</desc>
    <defs></defs>
    <g id="Page" stroke="none" stroke-width="1" fill="none" fill-rule="evenodd">
        <g id="Single" transform="translate(-188.000000, -5002.000000)" fill="#FFFFFF">
            <g id="videos" transform="translate(0.000000, 4858.799880)">
                <g id="Group-2" transform="translate(60.000000, 73.000000)">
                    <g id="Group" transform="translate(129.201650, 71.651902)">
                        <circle id="Oval-2" stroke="#FFFFFF" stroke-width="2" fill-opacity="0.176941803" cx="25" cy="25" r="25"></circle>
                        <polygon id="Triangle" points="32.58036 24.6756824 17 34.3513648 17 15"></polygon>
                    </g>
                </g>
            </g>
        </g>
    </g>
</svg>